<?xml version="1.0" encoding="utf-8"?>
<!-- Generator: Adobe Illustrator 19.1.0, SVG Export Plug-In . SVG Version: 6.00 Build 0)  -->
<svg version="1.1" id="Layer_1" xmlns="http://www.w3.org/2000/svg" xmlns:xlink="http://www.w3.org/1999/xlink" x="0px" y="0px"
	 viewBox="0 0 350 350" style="enable-background:new 0 0 350 350;" xml:space="preserve">
<style type="text/css">
	.st0{fill:#FFFFFF;}
</style>
<path id="XMLID_216_" class="st0" d="M10.2,55.7C22.9,62.8,36.4,69.3,52.5,74c0.5-0.4,1-0.8,1.4-1.2c9.3-9.1,19.9-17.6,32.8-25.1
	c15.7-9.1,33.5-16.5,54.6-20.5c32-6.2,62.7-4,92,5.5c20.9,6.8,37.7,16.4,52,27.6c17,13.3,29.3,28,38.5,43.7
	c8.2,13.9,13.5,28.2,16.4,42.8c2.8,13.9,3.3,27.9,1.8,41.9c-1.9,17.2-6.9,34-15.8,50.3c-9.8,18.1-23.6,35.1-43.7,50.1
	c-14.4,10.8-31.2,19.9-51.9,26.3c-15.9,5-32.9,7.8-51,8c-23.5,0.4-45-3.5-64.8-10.8c-20.2-7.3-36.3-17.2-50-28.5
	c-18.2-15.1-30.8-31.7-39.6-49.4c-8.4-16.9-13-34.2-14.2-51.8c-1.7-25.3,3.3-50.1,16.1-74.3c1-1.9,2.2-3.7,3.1-5.6
	c0.2-0.4,0.1-1.1-0.4-1.5c-10.8-7.5-15.8-16.5-18.4-26c-1.7-6.2-2-12.4-1.6-18.6c0-0.3,0.1-0.6,0.1-0.9C9.8,55.9,10,55.8,10.2,55.7z
	"/>
<g>
</g>
<g>
</g>
<g>
</g>
<g>
</g>
<g>
</g>
<g>
</g>
</svg>
