<?xml version="1.0" encoding="utf-8"?>
<!-- Generator: Adobe Illustrator 19.1.0, SVG Export Plug-In . SVG Version: 6.00 Build 0)  -->
<svg version="1.1" id="Layer_1" xmlns="http://www.w3.org/2000/svg" xmlns:xlink="http://www.w3.org/1999/xlink" x="0px" y="0px"
	 viewBox="0 0 350 350" style="enable-background:new 0 0 350 350;" xml:space="preserve">
<style type="text/css">
	.st0{fill:#FFFFFF;}
</style>
<path id="XMLID_216_" class="st0" d="M45.6,325c8-11.6,15.2-23.8,20.4-38.4c-0.5-0.5-0.9-0.9-1.3-1.2C54.5,277,45,267.4,36.7,255.7
	c-10.1-14.2-18.3-30.3-22.8-49.5c-6.9-29-4.5-56.8,6.1-83.4c7.6-19,18.2-34.1,30.6-47.1c14.7-15.4,31.1-26.6,48.5-34.9
	c15.4-7.4,31.3-12.2,47.5-14.9c15.5-2.5,31-3,46.6-1.6c19.1,1.7,37.7,6.3,55.9,14.3c20.2,8.9,39,21.4,55.7,39.6
	c12,13,22.1,28.3,29.2,47.1c5.5,14.5,8.6,29.8,8.9,46.2c0.4,21.3-3.9,40.8-12,58.8c-8.2,18.3-19.1,32.9-31.6,45.4
	c-16.7,16.5-35.2,27.9-54.8,35.9c-18.8,7.7-38,11.8-57.6,12.8c-28.1,1.5-55.6-3-82.5-14.6c-2.1-0.9-4.2-2-6.3-2.8
	c-0.5-0.2-1.3-0.1-1.6,0.3c-8.4,9.8-18.3,14.3-28.9,16.7c-6.8,1.5-13.7,1.8-20.6,1.4c-0.4,0-0.7,0-1-0.1
	C45.9,325.3,45.8,325.2,45.6,325z"/>
<g>
</g>
<g>
</g>
<g>
</g>
<g>
</g>
<g>
</g>
<g>
</g>
</svg>
