<?xml version="1.0" encoding="utf-8"?>
<!-- Generator: Adobe Illustrator 19.1.0, SVG Export Plug-In . SVG Version: 6.00 Build 0)  -->
<svg version="1.1" id="Layer_1" xmlns="http://www.w3.org/2000/svg" xmlns:xlink="http://www.w3.org/1999/xlink" x="0px" y="0px"
	 viewBox="0 0 30 30" style="enable-background:new 0 0 30 30;" xml:space="preserve">
<style type="text/css">
	.st0{fill:#FFFFFF;}
	.st1{fill:none;stroke:#C1C1C1;stroke-width:0.95;stroke-miterlimit:10;}
	.st2{fill:#2B7789;}
</style>
<g>
	<g id="XMLID_6_">
		<path class="st0" d="M29.2,24.9c0,2.4-2,4.4-4.4,4.4H5.1c-2.4,0-4.4-2-4.4-4.4V5.1c0-2.4,2-4.4,4.4-4.4h19.8c2.4,0,4.4,2,4.4,4.4
			L29.2,24.9L29.2,24.9z"/>
		<path class="st1" d="M29.2,24.9c0,2.4-2,4.4-4.4,4.4H5.1c-2.4,0-4.4-2-4.4-4.4V5.1c0-2.4,2-4.4,4.4-4.4h19.8c2.4,0,4.4,2,4.4,4.4
			L29.2,24.9L29.2,24.9z"/>
	</g>
	<path id="XMLID_42_" class="st2" d="M4,18.6c0.1-0.1,0.3-0.2,0.4-0.4c1-1.1,2-2.1,2.8-3.3c0.1-0.1,0.1-0.1,0.2,0
		c0.1,0,0.2,0.1,0.3,0.1c0,0,0.1,0,0.1,0.1c0.9,0.5,1.8,1.2,2.6,1.9c0.8,0.8,1.5,1.6,2.2,2.5c0,0,0,0.1,0.1,0.1
		c0.1-0.1,0.1-0.3,0.2-0.4c0.3-0.5,0.6-1,0.9-1.5c1.4-2.4,2.9-4.8,4.5-7c1-1.3,2-2.5,3.2-3.6c0.6-0.6,1.3-1.1,2-1.6
		c0.3-0.2,0.3-0.2,0.5,0.1c0.1,0.2,0.3,0.3,0.4,0.5c0.9,0.9,1.9,1.8,2.9,2.5C27.5,8.7,27.8,8.8,28,9c-0.7,0.3-1.4,0.7-2.1,1.1
		c-1.4,0.9-2.7,2-3.9,3.1c-1.3,1.3-2.6,2.6-3.7,4c-1.6,2-3.2,4.1-4.6,6.2c-0.2,0.3-0.4,0.6-0.6,0.9c-0.1,0.1-0.2,0.3-0.3,0.4
		c-1.6-1.8-3.4-3.4-5.5-4.6C6.6,19.7,5.8,19.3,5,19C4.7,18.8,4.4,18.7,4,18.6L4,18.6z"/>
</g>
</svg>
