<?xml version="1.0" encoding="utf-8"?>
<!-- Generator: Adobe Illustrator 19.1.0, SVG Export Plug-In . SVG Version: 6.00 Build 0)  -->
<svg version="1.1" id="Layer_1" xmlns="http://www.w3.org/2000/svg" xmlns:xlink="http://www.w3.org/1999/xlink" x="0px" y="0px"
	 viewBox="0 0 30 30" style="enable-background:new 0 0 30 30;" xml:space="preserve">
<style type="text/css">
	.st0{fill:#FFFFFF;stroke:#CCCCCC;stroke-miterlimit:10;}
	.st1{fill:#2B7789;}
</style>
<g id="XMLID_8_">
	<circle id="XMLID_3_" class="st0" cx="15" cy="15" r="12.3"/>
	<circle id="XMLID_7_" class="st1" cx="15" cy="15" r="7.1"/>
</g>
</svg>
