<?xml version="1.0" encoding="utf-8"?>
<!-- Generator: Adobe Illustrator 19.1.0, SVG Export Plug-In . SVG Version: 6.00 Build 0)  -->
<svg version="1.1" xmlns="http://www.w3.org/2000/svg" xmlns:xlink="http://www.w3.org/1999/xlink" x="0px" y="0px"
	 viewBox="0 0 50 50" style="enable-background:new 0 0 50 50;" xml:space="preserve">
<style type="text/css">
	.st0{display:none;}
	.st1{display:inline;fill:#B3B3B3;}
	.st2{fill:#B3B3B3;}
</style>
<g id="Layer_2" class="st0">
	<path class="st1" d="M17.9,29.1c0.4,1.2,0.7,2.2,1,3.3c0.3,1.1,0.7,2.2,1,3.3c0.3,0.9,0.9,1.3,1.7,1.3c0.8,0,1.4-0.6,1.6-1.5
		c0.9-3.4,1.7-6.9,2.6-10.3c0-0.1,0.1-0.3,0.2-0.4c0.1,0.6,0.3,1.1,0.4,1.7c0.2,1.1,0.5,2.2,0.7,3.3c0.2,0.9,0.8,1.4,1.7,1.4
		c2,0,4.1,0,6.1,0c1,0,1.7-0.7,1.7-1.7c0-0.9-0.7-1.6-1.7-1.6c-1.5,0-3,0-4.4,0c-0.3,0-0.4-0.1-0.5-0.4c-0.7-3.5-1.5-6.9-2.2-10.4
		c-0.2-0.9-0.7-1.5-1.5-1.6c-0.9-0.1-1.6,0.4-1.9,1.3c-0.5,2-1,4-1.5,6c-0.5,2-1,4.1-1.6,6.2c-0.2-0.8-0.4-1.4-0.6-2
		c-0.4-1.2-0.7-2.3-1.1-3.5c-0.3-0.8-0.8-1.3-1.6-1.3c-0.8,0-1.4,0.4-1.7,1.2c-0.5,1.3-1,2.7-1.5,4c-0.1,0.3-0.2,0.4-0.5,0.4
		c-1.9,0-3.8,0-5.7,0c-0.2,0-0.4,0-0.5-0.3c-1.8-4.1-1.8-8.2,0.7-12.1c2.1-3.2,5.1-4.9,8.9-5.1c2.2-0.1,4.1,0.6,6,1.7
		c0.7,0.4,1.3,0.8,2,1.2c0.6,0.4,1.3,0.4,1.9,0c0.5-0.3,1.1-0.6,1.6-0.9c2-1.1,4-1.9,6.4-1.8c4.8,0.1,8.1,2.3,9.8,7.1
		c2,5.8,0.7,10.9-3.4,15.4c-1.9,2.1-4.3,3.6-6.6,5.1c-2.8,1.8-5.6,3.6-8.4,5.4c-0.3,0.2-0.4,0.1-0.6-0.1c-4.2-2.7-8.2-5.6-12-8.8
		c-0.4-0.3-0.7-0.4-1.2-0.4c-2.5,0-5,0-7.6,0c-0.9,0-1.5-0.4-1.8-1.2c-0.3-0.9,0.3-1.9,1.2-2c0.2,0,0.4,0,0.6,0c3.3,0,6.6,0,9.9,0
		c1.2,0,1.6-0.3,2.1-1.4C17.7,29.5,17.8,29.3,17.9,29.1"/>
</g>
<g id="Layer_3">
	<g>
		<path class="st2" d="M43.1,34c0,1.6-0.2,3.1-0.7,4.4c-0.5,1.4-1.4,2.5-2.6,3.4c-1.5,1-3.1,1.5-4.8,1.8c-1.4,0.2-2.8,0.4-4.2,0.5
			c-1.1,0.1-2.2,0.1-3.3,0.2c-1.2,0-2.5,0.1-3.7,0.1c-1.3,0-2.7-0.1-4-0.2c-2-0.1-4-0.4-6-0.9c-1.8-0.5-3.5-1.2-4.7-2.6
			c-0.8-0.9-1.3-2-1.6-3.2c-0.3-1.4-0.5-2.8-0.4-4.2c0.1-1.6,0.5-3.1,1.1-4.6c0.7-1.5,1.6-2.9,2.6-4.2c0.8-1,1.8-1.9,2.8-2.7
			c1.1-0.9,2.4-1.6,3.7-2.2c0.4-0.2,0.8-0.3,1.2-0.5c0.1,0,0.3,0,0.4,0.1c1.1,0.7,2.4,1,3.7,1.1c1.9,0.2,3.7,0,5.5-0.6
			c0.6-0.2,1.1-0.6,1.6-0.9c0.1-0.1,0.3-0.1,0.5-0.1c1.7,0.5,3.3,1.3,4.8,2.2c1.5,0.9,2.8,2.1,4,3.4c1.6,1.8,2.8,3.7,3.6,6
			c0.3,0.9,0.5,1.8,0.5,2.7C43,33.3,43.1,33.7,43.1,34 M20.8,34.1c0,0.1-0.1,0.2-0.1,0.3c-0.1,0.4-0.2,0.9-0.4,1.3
			c-0.1,0.2,0,0.3,0.2,0.5c0.8,0.4,1.5,0.6,2.4,0.7c0.2,0,0.4,0.1,0.4,0.4c0,0.3,0,0.7,0,1c0,0.4,0.1,0.5,0.5,0.4c0.3,0,0.7,0,1,0
			c0.3,0,0.5-0.2,0.5-0.4c0-0.4,0-0.8,0-1.2c0-0.2,0.1-0.3,0.3-0.4c1.7-0.4,2.9-1.8,2.7-3.7c-0.1-1.2-0.8-2-1.8-2.5
			c-0.7-0.4-1.5-0.7-2.3-1c-0.3-0.1-0.5-0.3-0.8-0.5c-0.3-0.2-0.5-0.5-0.4-0.9c0.1-0.5,0.4-0.7,0.9-0.8c1-0.2,2,0,2.9,0.4
			c0.3,0.2,0.5,0.1,0.5-0.2c0.1-0.4,0.2-0.9,0.4-1.3c0.1-0.2,0-0.4-0.2-0.5c-0.6-0.2-1.3-0.4-1.9-0.5c-0.3-0.1-0.4-0.1-0.4-0.4
			c0-0.3,0-0.7,0-1c0-0.2-0.1-0.4-0.4-0.4c-0.4,0-0.7,0-1.1,0c-0.3,0-0.4,0.2-0.4,0.4c0,0.3,0,0.7,0,1c0,0.3-0.1,0.4-0.4,0.5
			c-0.8,0.2-1.5,0.7-2,1.4c-0.6,0.9-0.8,2.3-0.1,3.3c0.4,0.6,0.9,1,1.5,1.3c0.9,0.4,1.8,0.8,2.7,1.3c0.5,0.2,0.6,0.7,0.5,1.2
			c-0.1,0.5-0.4,0.8-0.8,0.9c-0.6,0.1-1.2,0.2-1.8,0.1C22.2,34.6,21.5,34.3,20.8,34.1"/>
		<path class="st2" d="M23.8,18.2c-1.2,0-2.4-0.2-3.6-0.5c-0.8-0.2-1.4-0.6-1.7-1.4c-0.7-1.9-1.6-3.7-2.4-5.6
			c-0.5-1.1,0.1-1.8,1.4-1.9c0.7,0,1.4,0,2,0.1c0.5,0,1-0.2,1.5-0.4c0.4-0.3,0.6-0.7,0.8-1.2c0.3-0.7,0.7-1.3,1.5-1.6
			c0.6-0.2,1.2,0,1.7,0.4c0.6,0.5,0.8,1.1,1.1,1.7c0.3,0.9,1,0.9,1.6,0.5c0.7-0.4,1.4-0.8,2.3-0.8c0.6,0,1.1,0.4,1,1
			c-0.1,0.4-0.1,0.9-0.3,1.3c-0.7,1.4-1.2,2.8-1.5,4.4c-0.1,0.6-0.1,1.2-0.1,1.7c0,0.6-0.3,1-0.8,1.3c-0.9,0.5-1.9,0.8-3,0.9
			C24.7,18.2,24.2,18.2,23.8,18.2"/>
	</g>
	<g>
	</g>
	<g>
	</g>
	<g>
	</g>
	<g>
	</g>
	<g>
	</g>
	<g>
	</g>
</g>
</svg>
