<?xml version="1.0" encoding="utf-8"?>
<!-- Generator: Adobe Illustrator 19.1.0, SVG Export Plug-In . SVG Version: 6.00 Build 0)  -->
<svg version="1.1" id="Layer_2" xmlns="http://www.w3.org/2000/svg" xmlns:xlink="http://www.w3.org/1999/xlink" x="0px" y="0px"
	 viewBox="0 0 50 50" style="enable-background:new 0 0 50 50;" xml:space="preserve">
<style type="text/css">
	.st0{fill:#FFFFFF;}
</style>
<path class="st0" d="M38.9,10.8c-0.5,0.4-1.1,0.8-1.6,1.2c-3.2,2.7-6.2,5.6-9.1,8.7c-3.1,3.2-6.1,6.5-9.2,9.8
	c-0.2,0.2-0.4,0.4-0.6,0.6c0-0.1,0-0.1-0.1-0.2c-0.7-2.2-1.4-4.4-2.2-6.6c0-0.1-0.1-0.2-0.2-0.2c-0.6,0-1.3,0-1.9,0
	c-0.7,0-1.4,0.1-2,0.3c-0.6,0.2-1.1,0.4-1.5,0.9C10.4,25.6,10,25.8,10,26v0c0,0-0.1,0.1,0,0.1c0.6,1.1,1.1,2.2,1.7,3.3
	c1.2,2.2,2.4,4.4,3.8,6.6c0.7,1.1,1.3,2.1,2.1,3.1c0.1,0.1,0.1,0.1,0.2,0.1c0.3,0,0.7,0,1,0c0.1,0,0.2,0,0.2-0.1
	c0.2-0.3,0.5-0.5,0.7-0.8c1.2-1.4,2.2-2.9,3.3-4.5c2-3,4.1-6,6.3-8.8c2.3-3,4.7-5.9,7.2-8.7c1.2-1.4,2.4-2.7,3.7-4.1L38.9,10.8z"/>
<g>
</g>
<g>
</g>
<g>
</g>
<g>
</g>
<g>
</g>
<g>
</g>
</svg>
